<?xml version="1.0" encoding="UTF-8" standalone="no"?>
<svg
   xmlns:dc="http://purl.org/dc/elements/1.1/"
   xmlns:cc="http://creativecommons.org/ns#"
   xmlns:rdf="http://www.w3.org/1999/02/22-rdf-syntax-ns#"
   xmlns:svg="http://www.w3.org/2000/svg"
   xmlns="http://www.w3.org/2000/svg"
   xmlns:sodipodi="http://sodipodi.sourceforge.net/DTD/sodipodi-0.dtd"
   xmlns:inkscape="http://www.inkscape.org/namespaces/inkscape"
   width="100mm"
   height="100mm"
   viewBox="0 0 566.89978 566.89931"
   version="1.1"
   id="svg669"
   sodipodi:docname="cynoferox.svg"
   inkscape:version="1.0.1 (3bc2e813f5, 2020-09-07)">
  <metadata
     id="metadata675">
    <rdf:RDF>
      <cc:Work
         rdf:about="">
        <dc:format>image/svg+xml</dc:format>
        <dc:type
           rdf:resource="http://purl.org/dc/dcmitype/StillImage" />
        <dc:title></dc:title>
      </cc:Work>
    </rdf:RDF>
  </metadata>
  <defs
     id="defs673" />
  <sodipodi:namedview
     pagecolor="#ffffff"
     bordercolor="#666666"
     borderopacity="1"
     objecttolerance="10"
     gridtolerance="10"
     guidetolerance="10"
     inkscape:pageopacity="0"
     inkscape:pageshadow="2"
     inkscape:window-width="3840"
     inkscape:window-height="2066"
     id="namedview671"
     showgrid="false"
     inkscape:zoom="0.9787733"
     inkscape:cx="1218.4576"
     inkscape:cy="589.17866"
     inkscape:window-x="-11"
     inkscape:window-y="-11"
     inkscape:window-maximized="1"
     inkscape:current-layer="svg669"
     inkscape:document-rotation="0" />
  <path
     id="Sélection #4"
     fill="none"
     stroke="#000000"
     stroke-width="0.54"
     d="m 334.4453,16.606921 c 0,0 3.78,0 3.78,0 2.5704,7.479 11.4858,5.5026 15.5412,8.5536 1.7118,1.2906 1.9872,3.5208 2.3868,5.4864 0.7344,3.618 1.4202,9.261 2.8728,12.42 1.863,4.0608 3.861,3.591 4.0392,7.02 0,0 8.1,1.08 8.1,1.08 -1.6686,2.9538 -2.889,1.6794 -6.48,2.7 0,0 10.26,0 10.26,0 -1.5552,0.756 -4.7358,1.6956 -5.7726,2.619 -1.4256,1.2744 -1.4202,3.2616 0.4536,4.077 0.8208,0.3618 2.2518,0.3132 3.159,0.324 0.2862,2.4354 0.648,2.5218 2.7,3.78 0,0 0,1.08 0,1.08 0,0 -5.4,0.54 -5.4,0.54 3.3642,4.3902 3.3912,1.053 8.1,2.16 0,0 -3.24,3.24 -3.24,3.24 3.564,2.6838 5.0382,1.9602 9.18,2.7 -2.4516,2.699996 -4.1688,2.159996 -7.56,2.159996 2.3706,3.3642 3.3102,5.6484 -1.62,6.48 2.9538,2.808 3.8988,-0.0432 7.02,-0.8478 0,0 11.34,-0.7722 11.34,-0.7722 10.6272,-0.0162 24.3162,-0.5508 34.56,0.8532 0,0 11.34,1.917 11.34,1.917 1.2636,0.3132 3.3318,0.6372 3.5532,2.2086 0.2646,1.9224 -2.025,3.8988 -2.7,5.8212 0,0 -0.6318,3.1482 -0.6318,3.1482 0,0 -2.0628,3.3534 -2.0628,3.3534 -0.5508,1.463403 -0.0918,2.640603 -1.3878,5.378403 -2.0952,4.4172 -4.3848,5.967 -4.8708,11.34 8.019,1.7064 10.7622,12.3444 10.8,19.44 0.0108,1.9764 -0.0918,3.4398 0.4104,5.4 0.9774,3.8124 2.3436,5.7942 5.5296,8.1 0,0 -0.6696,2.7 -0.6696,2.7 -1.3554,6.183 3.996,3.1968 7.1496,2.7 0,0 0.5508,5.94 0.5508,5.94 0.2592,1.5444 1.1232,4.5252 0.6966,5.94 -0.7992,2.6568 -5.1138,4.3416 -4.968,7.56 0,0 1.836,4.86 1.836,4.86 0,0 2.3814,11.88 2.3814,11.88 0,0 0,4.86 0,4.86 0,0 1.215,13.5 1.215,13.5 0,0 2.6082,28.08 2.6082,28.08 0.0108,5.697 0.7614,4.9626 1.0314,8.64 0.1944,2.6298 -0.0216,6.831 1.5876,9.0612 2.2464,3.105 10.6218,3.0294 12.3876,5.8212 0.9936,1.296 0.1296,7.614 0,9.4176 0,0 -6.669,31.86 -6.669,31.86 -0.4536,2.8836 -0.8802,7.371 -0.756,10.26 0,0 0.6264,7.02 0.6264,7.02 -0.1404,2.1762 -1.1286,3.024 -1.4202,7.02 0.0108,1.782 0.486,4.374 0,5.94 -1.4418,3.68281 -5.3406,4.6494 -7.236,5.8968 -1.5822,1.0368 -1.998,2.1816 -4.4118,3.6342 -3.4074,2.0466 -7.9272,4.7196 -9.72,-0.351 -3.9798,1.2906 -10.8162,3.375 -12.609,-2.1708 -0.4752,-1.458 -0.351,-4.3038 -0.351,-5.9292 0,0 -5.94,0 -5.94,0 -3.1752,-6.23159 -2.3868,-10.7892 1.0098,-16.74 1.3068,-2.2896 4.725,-6.0912 4.4442,-8.64 0,0 -2.9268,-8.64 -2.9268,-8.64 0,0 -6.4854,-17.82 -6.4854,-17.82 0,0 -2.4354,-8.1 -2.4354,-8.1 -0.5724,-5.2326 9.4176,-4.9626 10.1142,-9.2016 0.2106,-1.296 -0.891,-3.6288 -1.4094,-4.8384 0,0 -4.914,-9.72 -4.914,-9.72 -1.3824,-2.6406 -1.7118,-8.2836 -1.6632,-11.34 0,0 0,-8.64 0,-8.64 0,0 0,-5.94 0,-5.94 -0.6642,-2.592 -4.131,-5.0004 -6.534,-5.94 -1.2906,7.209 0.5076,8.0028 0.4428,13.5 -0.0378,2.9106 -3.3264,10.0332 -2.8836,12.96 0.3942,2.5974 2.9106,2.9808 3.3156,4.9734 0.2052,0.999 -0.567,4.5576 -0.7992,5.8266 0,0 0,7.56 0,7.56 0,0 3.7044,28.62 3.7044,28.62 0,0 0,21.6 0,21.6 0,0 0.4914,6.48 0.4914,6.48 0,0 0.8208,10.26 0.8208,10.26 0,0 4.2714,18.36 4.2714,18.36 1.215,5.6106 2.5056,17.5122 2.5164,23.22 0,0 0,9.72 0,9.72 0,0 0.4644,5.4 0.4644,5.4 0,1.944 -0.6696,2.754 -0.7776,4.32 0,0 0.3132,9.72 0.3132,9.72 -0.0108,7.209 -2.5002,16.9722 -3.7368,24.3 -0.4266,2.5488 -0.3132,7.5546 -2.2032,9.18 0,0 -0.54,8.1 -0.54,8.1 0,0 0,8.64 0,8.64 0,0 -0.6264,7.02 -0.6264,7.02 0,0 1.2204,8.1 1.2204,8.1 0,0 0,9.72 0,9.72 0,0 1.8576,8.1 1.8576,8.1 0,0 0.2754,4.32 0.2754,4.32 0,0 4.4874,16.74 4.4874,16.74 0,0 2.9322,7.56 2.9322,7.56 0,0 -1.3554,14.04 -1.3554,14.04 0,0 5.1786,8.1 5.1786,8.1 0,0 8.721,11.88 8.721,11.88 0,0 3.618,5.94 3.618,5.94 0,0 -0.3888,8.1 -0.3888,8.1 0,0 -17.82,-1.62 -17.82,-1.62 0,0 -24.84,0 -24.84,0 0,0 1.1664,-18.9 1.1664,-18.9 0.216,-2.0034 1.1394,-8.1378 0.8694,-9.72 -0.567,-3.348 -4.3254,-5.481 -5.5296,-9.18 -1.3392,-4.1256 -0.9828,-7.8408 -1.4634,-11.88 0,0 -1.053,-4.86 -1.053,-4.86 -0.8208,-4.8438 -0.3618,-7.18739 0,-11.88 0.216,-3.429 -1.4526,-10.08179 -2.403,-13.5 0,0 -5.9508,-18.36 -5.9508,-18.36 0,0 -4.104,-9.72 -4.104,-9.72 -0.3294,-1.77119 0.486,-4.54139 0.5994,-6.48 0.4752,-8.3538 -4.6818,-13.959 -7.884,-21.06 -2.2734,-5.049 -1.2906,-4.9248 -1.9872,-8.64 0,0 -0.9342,-3.78 -0.9342,-3.78 0,0 0,-4.32 0,-4.32 -0.8856,-3.2832 -2.8836,-2.65679 -3.186,-9.18 -5.1084,6.4098 -1.7712,11.6856 -5.4,19.98 -4.104,-3.4128 -2.0628,-6.8742 -4.5522,-8.8128 -0.8694,-0.675 -2.9214,-0.702 -4.0878,-0.9072 -1.2582,3.4938 -2.0088,3.996 -2.5434,8.1 -0.8424,6.45841 0.4536,8.9856 -2.3166,16.2 0,0 -1.08,0 -1.08,0 0,0 -3.7368,-21.6 -3.7368,-21.6 0,0 -2.7432,-3.78 -2.7432,-3.78 -0.9504,1.485 -1.809,2.5974 -2.3112,4.32 -0.8856,3.024 -0.0702,5.8374 -3.6288,7.02 -2.9862,-5.3892 -0.8154,-9.9792 -2.2896,-16.2 -0.4158,-1.77659 -1.4472,-5.5944 -4.077,-4.27679 -3.1914,1.593 -2.2464,7.45199 -3.6774,8.58599 -0.7614,0.59941 -2.0034,0.51841 -2.916,0.5508 0,-4.40639 -0.3294,-14.4558 -1.62,-18.36 0,0 -13.8726,22.68 -13.8726,22.68 -3.6612,6.7716 -9.0828,19.8612 -8.7858,27.54 0,0 0.6912,7.02 0.6912,7.02 -0.1998,1.9548 -0.8262,2.5056 -0.6642,5.4 0.1728,3.01321 1.9926,9.41761 1.296,11.88 -0.3564,1.25821 -1.0854,2.1708 -1.7766,3.24 0,0 -2.1492,3.5046 -2.1492,3.5046 -1.0422,1.26901 -3.9258,3.02401 -7.317,7.2954 0,0 -4.2336,5.4 -4.2336,5.4 0,0 -3.9528,4.32 -3.9528,4.32 0,0 -2.7378,4.806 -2.7378,4.806 0,0 -3.6396,3.4074 -3.6396,3.4074 0,0 -7.6248,12.8466 -7.6248,12.8466 -4.0608,5.7402 -10.7028,15.3792 -10.7136,22.6584 -0.005,2.2464 1.4904,2.6514 3.3804,3.1752 4.8762,1.3554 5.859,0.189 10.26,-0.9936 0,0 0,-1.08 0,-1.08 0,0 -5.4,-1.62 -5.4,-1.62 2.0682,-2.4246 2.9376,-2.1492 5.94,-2.16 0,0 -1.62,-2.16 -1.62,-2.16 2.6946,-1.215 3.0186,-0.432 4.86,1.62 1.6308,-3.024 3.3156,-4.59 6.48,-5.94 0,0 -4.32,7.02 -4.32,7.02 0,0 0.54,0.54 0.54,0.54 0,0 7.56,-2.7 7.56,-2.7 0,0 -5.4,5.94 -5.4,5.94 0,0 5.4,0.54 5.4,0.54 -1.3284,3.4398 -3.9474,2.9052 -7.02,2.16 0,0 2.16,7.56 2.16,7.56 -3.078,-1.7496 -3.51,-3.3534 -4.86,-6.48 0,0 -1.08,0 -1.08,0 -0.6642,3.6396 -0.2916,7.4142 -4.32,8.64 0,0 1.62,-7.02 1.62,-7.02 -4.374,0.5886 -5.454,1.2906 -10.26,1.0584 -2.8242,-0.135 -4.4496,-1.4094 -6.9228,0.756 -1.7496,1.5282 -3.9258,4.5144 -3.7098,6.9174 0.189,2.079 0.3456,7.236 -1.1502,8.7696 -1.215,1.2474 -7.3224,1.6524 -9.2772,1.8468 0,0 -24.84,1.7118 -24.84,1.7118 0,0 -7.02,0.5184 -7.02,0.5184 -1.4634,0.0594 -5.049,-0.0648 -6.1506,-1.0476 -1.9116,-1.7118 0.7074,-7.5762 2.0412,-9.1422 2.835,-3.3264 7.4466,-4.7142 11.6694,-4.9086 1.3824,-5.6484 6.2802,-8.154 10.1034,-12.0312 0,0 4.6872,-5.8752 4.6872,-5.8752 1.5606,-1.2582 3.888,-1.2528 6.2964,-4.779 1.1286,-1.6578 4.3308,-7.8408 3.942,-9.7146 -0.5724,-2.7702 -2.7756,-1.9872 -2.349,-7.02 0,0 4.266,0.9288 4.266,0.9288 2.4678,-0.1998 3.6774,-4.9464 2.808,-6.8688 -0.594,-1.3068 -1.8036,-2.2302 -1.9278,-3.78 -0.081,-1.0368 0.3888,-1.8036 0.7938,-2.7 0,0 2.6892,1.1988 2.6892,1.1988 2.0574,0.513 3.7368,-2.0628 3.8178,-3.8988 0.0756,-1.7118 -1.404,-2.8836 -2.0952,-4.32 -0.6426,-1.3338 -0.594,-2.3544 -0.6318,-3.78 0,0 5.94,2.7 5.94,2.7 1.5552,-4.8924 6.3828,-9.1044 6.912,-14.58 0.2214,-2.241 -0.4698,-3.4614 -0.4914,-5.3784 0,0 0,-9.2016 0,-9.2016 0,0 -2.322,-26.46 -2.322,-26.46 -0.1674,-4.6656 1.2636,-14.31 2.3814,-18.9 0,0 -5.94,4.5522 -5.94,4.5522 0,0 -4.86,-2.025 -4.86,-2.025 0,0 -5.4,-1.4472 -5.4,-1.4472 0.3888,-2.9322 0.7992,-5.9076 1.9872,-8.64 0,0 2.9214,-5.94 2.9214,-5.94 0.378,-2.1438 -1.6092,-4.0284 -0.5562,-5.7024 0.9774,-1.5444 2.8782,-0.6588 4.2876,-0.918 1.026,-0.189 1.7658,-0.6804 2.376,-1.5336 2.6514,-3.7206 -3.3264,-8.424 -1.3824,-11.0916 1.5552,-1.9224 3.9042,0.1944 5.3676,0 1.3878,-0.4266 2.4192,-3.2346 2.8728,-4.4658 1.4688,-3.9582 -4.0284,-6.048 -2.4246,-9.6012 0.8856,-1.9494 3.6288,-0.729 5.0166,-0.9666 2.1168,-0.3672 3.2292,-3.8016 3.186,-5.6808 -0.0756,-3.2994 -4.3416,-3.672 -3.5046,-6.9066 0.8856,-3.4182 5.7132,0.005 7.5114,-2.4084 1.7226,-2.3112 -1.2582,-4.2768 -1.7388,-9.585 0,0 5.94,0 5.94,0 1.377,-4.887 2.3058,-3.8934 -0.54,-8.64 2.0844,-3.1374 1.701,-3.3264 5.4,-2.7 0,0 5.5404,-14.04 5.5404,-14.04 0,0 3.4776,-6.48 3.4776,-6.48 1.4256,-5.4918 -1.3392,-9.4338 -0.8262,-12.42 0,0 3.3048,-10.26 3.3048,-10.26 0.0594,-1.2258 -1.431,-6.4908 -2.0898,-7.56 -0.945,-1.5444 -1.8792,-2.1438 -3.024,-4.32 -2.0466,-3.8988 -2.8242,-8.64 -3.4506,-12.96 0,0 -2.0844,-16.74 -2.0844,-16.74 0,0 -2.0358,-8.1 -2.0358,-8.1 0,0 1.1394,-8.1 1.1394,-8.1 0,0 0,-11.88 0,-11.88 0,0 -2.6514,-18.36 -2.6514,-18.36 -2.5002,2.0844 -5.103,5.967 -7.236,8.64 -6.0156,7.5384 -12.0042,15.6762 -13.8078,25.38 -0.7506,4.0338 1.0098,4.401 1.5444,7.02 0.3294,1.6038 -0.4104,3.8718 -0.945,5.4 -1.7442,4.9626 -4.3686,9.5202 -7.02,14.04 0,0 -2.8026,4.86 -2.8026,4.86 0,0 -2.1654,6.48 -2.1654,6.48 0,0 -5.427,14.04 -5.427,14.04 -1.4634,5.8428 -0.6372,5.67 -1.134,9.18 0,0 -1.2528,4.86 -1.2528,4.86 -0.8586,4.5738 0.4374,9.8874 2.3868,14.04 2.1492,4.5954 4.6926,6.7824 4.2822,12.42 -0.4968,6.7932 -3.0888,13.2354 -10.7028,14.04 0.1458,-4.6764 1.7334,-4.8492 1.8252,-7.02 0.0648,-1.4148 -1.2798,-4.0824 -3.0294,-3.2616 -2.1114,0.9882 -2.6028,4.6332 -3.4668,6.5016 -1.296,2.8134 -3.1698,3.321 -5.7078,8.1 -0.5562,1.0476 -1.971,3.4506 -1.377,4.6062 0.9072,1.7712 4.158,0 6.8958,-0.2862 -0.0108,1.2528 0.0324,2.5704 -0.351,3.78 -1.1016,3.4992 -5.2542,6.2694 -8.829,6.4584 -2.1654,0.1134 -3.3534,-0.189 -5.4,-0.4374 -2.9862,-0.3564 -6.2316,-0.8046 -8.5158,-2.9916 -3.0672,-2.92679 -0.513,-9.33119 -0.6858,-13.2894 -0.1998,-4.5252 -2.403,-5.7348 -2.187,-8.1 0,0 3.4398,-9.18 3.4398,-9.18 1.7604,-5.832 5.7132,-16.9452 5.7888,-22.68 0,0 0,-5.94 0,-5.94 0,0 -1.62,-17.28 -1.62,-17.28 -0.0918,-8.1432 0.54,-7.30619 1.9116,-14.58 0,0 2.4894,-13.5 2.4894,-13.5 1.5498,-5.7888 3.3264,-7.3926 4.3308,-10.26 0,0 1.458,-5.94 1.458,-5.94 0,0 2.4624,-8.64 2.4624,-8.64 0.6642,-2.1654 3.0024,-7.4628 3.0996,-9.18 0,0 -0.3726,-3.24 -0.3726,-3.24 -0.297,-3.1644 3.7584,-9.099 5.1354,-12.42 3.0726,-7.4088 4.3146,-13.5972 4.3254,-21.6 0.0108,-5.2056 1.2258,-7.5384 2.4462,-12.42 2.2518,-9.0126 3.1806,-13.797 6.7338,-22.68 0,0 -11.88,-0.54 -11.88,-0.54 0,0 2.1114,-16.74 2.1114,-16.74 0.324,-4.671 -0.2052,-6.4368 2.2464,-10.8 0.3726,-0.6642 0.9666,-1.8684 1.4796,-2.3868 0.9504,-0.9504 3.1104,-1.296 4.4226,-1.5768 0,0 11.88,-2.11139 11.88,-2.11139 11.3508,-1.89541 29.9592,-5.059813 40.5,-8.505003 -4.9194,-6.43141 -7.4412,-4.11481 -14.04,-6.17761 -3.1212,-0.9774 -3.4506,-2.1924 -4.9518,-2.6406 -1.1016,-0.3294 -7.8408,1.1394 -8.2026,-4.1418 -0.135,-1.9494 2.862,-5.1138 3.9744,-7.02 0,0 3.78,2.7 3.78,2.7 0,0 3.78,-5.399996 3.78,-5.399996 0,0 -5.4,-2.2572 -5.4,-2.2572 -2.6946,2.7054 -3.5532,0.7884 -6.48,0 -1.2096,-0.459 -2.6298,-0.3888 -3.6828,-0.9936 -1.3338,-0.7668 -6.0372,-7.614 -6.6582,-9.1692 -0.3348,-0.8316 -0.3402,-1.3122 -0.459,-2.16 4.3794,-0.7236 3.2562,-3.3804 10.26,-5.8914 0,0 20.4606,-4.5198 20.4606,-4.5198 3.7152,-2.214 0.702,-5.1678 3.9096,-6.8094 4.2066,-2.1546 15.1254,-2.0952 16.2108,-9.7794 1.0098,-7.1928 -7.8948,-6.5232 -10.017,-8.9154 -0.81,-0.9126 -0.7722,-1.836 -0.864,-2.9646 5.0274,-0.9018 14.4018,-0.7506 18.3546,2.7702 1.755,1.566 3.5208,3.9474 4.914,5.8698 0.8532,1.1772 1.7604,2.9106 3.2454,3.2994 1.0368,0.2754 3.1212,-0.297 4.266,-0.4428 2.8296,-0.3672 9.1152,0.8208 9.9414,-2.8674 0.4374,-1.9602 -2.2194,-4.0068 -3.3426,-5.3892 -1.7982,-2.214 -1.7118,-3.24 -1.7388,-5.94 z m -42.66,59.399996 c -2.9052,-3.196796 -5.7132,-2.305796 -9.18,-0.54 0,0 0,1.08 0,1.08 3.5478,0.864 5.7564,0.7074 9.18,-0.54 z"
     style="fill:#000000;stroke:none" />
</svg>
