<?xml version="1.0" encoding="UTF-8" standalone="no"?>
<svg
   xmlns:dc="http://purl.org/dc/elements/1.1/"
   xmlns:cc="http://creativecommons.org/ns#"
   xmlns:rdf="http://www.w3.org/1999/02/22-rdf-syntax-ns#"
   xmlns:svg="http://www.w3.org/2000/svg"
   xmlns="http://www.w3.org/2000/svg"
   xmlns:sodipodi="http://sodipodi.sourceforge.net/DTD/sodipodi-0.dtd"
   xmlns:inkscape="http://www.inkscape.org/namespaces/inkscape"
   width="100mm"
   height="100mm"
   viewBox="0 0 566.90038 566.89935"
   version="1.1"
   id="svg799"
   sodipodi:docname="groin.svg"
   inkscape:version="1.0.1 (3bc2e813f5, 2020-09-07)">
  <metadata
     id="metadata805">
    <rdf:RDF>
      <cc:Work
         rdf:about="">
        <dc:format>image/svg+xml</dc:format>
        <dc:type
           rdf:resource="http://purl.org/dc/dcmitype/StillImage" />
        <dc:title></dc:title>
      </cc:Work>
    </rdf:RDF>
  </metadata>
  <defs
     id="defs803" />
  <sodipodi:namedview
     pagecolor="#ffffff"
     bordercolor="#666666"
     borderopacity="1"
     objecttolerance="10"
     gridtolerance="10"
     guidetolerance="10"
     inkscape:pageopacity="0"
     inkscape:pageshadow="2"
     inkscape:window-width="3840"
     inkscape:window-height="2066"
     id="namedview801"
     showgrid="false"
     inkscape:zoom="1.7906752"
     inkscape:cx="706.6915"
     inkscape:cy="390.66689"
     inkscape:window-x="-11"
     inkscape:window-y="-11"
     inkscape:window-maximized="1"
     inkscape:current-layer="svg799"
     inkscape:document-rotation="0" />
  <path
     id="Sélection #5"
     fill="none"
     stroke="#000000"
     stroke-width="0.9"
     d="m 250.83847,57.058904 c 0.56863,-1.477404 1.24888,-2.720979 3.14081,-2.370231 1.87599,0.345438 1.87067,2.104506 3.83701,2.960127 0,0 5.77145,1.078821 5.77145,1.078821 1.97696,0.488934 2.13108,1.015056 3.80512,1.812213 1.18511,0.563337 1.63684,0.504873 2.64657,1.530558 1.38706,1.40832 5.79271,7.982244 6.66958,9.86886 0,0 1.83879,4.639473 1.83879,4.639473 1.3286,1.955709 4.27278,2.024793 7.36046,4.283424 2.5828,1.886607 3.06641,3.576591 4.4269,4.304673 0.92471,0.499536 1.82815,0.244458 3.01859,0.632403 3.2843,1.068201 1.68466,2.157651 8.50306,1.955709 3.48093,0.08505 7.73246,-0.983169 11.14962,0 4.26217,0.951273 2.74756,5.149665 6.77588,7.647435 1.98758,1.227627 5.04869,-0.462357 8.11511,0 2.69439,0.403893 3.7998,2.49777 6.37729,3.980484 4.92114,2.827267 5.36223,-0.377325 8.50305,-0.313542 0,0 6.3773,1.642149 6.3773,1.642149 0,0 5.84585,1.87599 5.84585,1.87599 4.63947,1.54649 6.52077,2.15765 6.90873,7.61554 2.65721,0 4.97959,-0.26041 7.302,1.33922 1.86535,1.28077 2.12044,3.11956 5.45258,5.93089 0,0 7.44018,4.9743 7.44018,4.9743 0,0 4.78297,3.96985 4.78297,3.96985 1.86536,1.34987 3.52876,1.63153 5.82458,3.62443 2.27988,1.97165 2.84322,3.64037 4.06553,4.88926 0.96722,0.9991 2.20547,1.48803 2.85383,2.55623 1.14792,1.89193 -0.2604,4.02301 1.34987,6.085 2.05668,2.63595 6.8609,2.56686 8.21607,4.58634 0.89282,1.33391 0.69088,5.87774 1.61558,7.7484 0,0 3.59254,4.78297 3.59254,4.78297 1.85473,2.67848 3.45969,6.0053 4.66074,9.03451 0,0 6.48889,22.32052 6.48889,22.32052 0.54207,2.84322 -0.77058,2.49777 0,5.33567 0,0 9.66692,24.42503 9.66692,24.42503 2.99201,8.03539 5.82991,18.51008 5.87243,27.10349 0.0426,8.53494 1.58368,3.73071 1.59432,10.62882 0.005,1.73782 0.19663,9.83166 -0.28698,10.87328 -0.31887,0.68024 -0.48892,0.55801 -0.7759,0.81841 0.57395,1.42958 1.14791,1.99823 0,3.18865 0,0 0,1.06288 0,1.06288 1.19573,1.07351 1.03099,1.61559 1.08413,3.18865 0,0 0,6.90873 0,6.90873 0,0 0.51019,5.31441 0.51019,5.31441 0,0 1.68466,21.25764 1.68466,21.25764 0,0 0.54739,5.84585 0.54739,5.84585 0,0 0,10.62882 0,10.62882 0,0 -0.63772,6.90873 -0.63772,6.90873 -0.0904,7.93974 -0.55271,17.72888 -2.01949,25.50917 0,0 -1.41894,6.90873 -1.41894,6.90873 0,0 -2.42337,9.0345 -2.42337,9.0345 0,0 0,3.18865 0,3.18865 0,0 0,5.31441 0,5.31441 0,0 1.45083,5.31441 1.45083,5.31441 0,0 -0.372,5.84585 -0.372,5.84585 0,0 -0.3295,14.3489 -0.3295,14.3489 -0.47831,2.54561 -0.76528,4.4216 -3.39059,5.31441 -0.0744,5.88837 -2.13108,4.37376 -3.10362,7.97162 0,0 0,10.09738 0,10.09738 0,0 -5.3091,0.31355 -5.3091,0.31355 0,0 -10.71915,6.59518 -10.71915,6.59518 0,0 -1.06289,-2.12576 -1.06289,-2.12576 -4.65543,1.62621 -11.75016,6.74399 -15.41179,1.06288 -2.53497,0.87688 -8.01945,3.5022 -10.46407,1.95571 -3.20991,-2.0301 0.8875,-9.32147 1.31265,-11.52165 0.38264,-1.98227 -0.52612,-3.14613 -1.47209,-4.78297 -1.64214,-2.84321 -4.79891,-8.84848 -8.49242,-9.11952 -3.26837,-0.23915 -1.78034,4.13992 -1.47742,5.93088 0,0 1.41364,10.62882 1.41364,10.62882 0,0 0.43047,7.44017 0.43047,7.44017 0.30292,2.57218 -0.57395,4.82549 1.74313,6.37729 -2.33303,6.99377 -0.80248,4.29937 -1.81754,10.09738 0,0 -2.42868,9.56594 -2.42868,9.56594 0,0 -0.84499,5.22407 -0.84499,5.22407 -1.74313,4.5013 -5.91494,2.65188 -8.23733,7.53051 -1.38175,2.89637 -0.71214,4.61292 -1.42427,7.44018 0,0 -5.44195,20.19476 -5.44195,20.19476 -2.1364,6.29226 -2.81664,5.17092 -5.53762,9.56593 -1.08413,1.74844 -0.69619,2.56155 -1.86004,4.78297 -1.30203,2.49246 -3.01327,3.78386 -2.62,6.90874 0.30823,2.48183 3.05046,5.35692 4.54913,7.44017 2.75818,3.83169 5.64391,8.49775 9.18862,11.53227 4.01237,3.43311 6.13283,3.4278 7.80154,4.78297 3.40654,2.75818 4.94241,7.116 4.95305,11.31969 -1.21701,0.0531 -4.8627,0.22321 -5.82461,0.61647 -2.00353,0.81842 -1.64215,1.93977 -4.80954,2.03011 0,0 -13.2807,-1.05226 -13.2807,-1.05226 0,0 -4.78297,0 -4.78297,0 0,0 -14.34891,-1.06288 -14.34891,-1.06288 0,0 -8.50305,0 -8.50305,0 -4.82018,0.005 -9.11954,1.83879 -13.28603,-1.06288 2.03011,-6.09031 4.12397,-12.9087 7.0469,-18.60043 1.05226,-2.05136 5.2719,-7.6687 5.36756,-9.0345 0.12223,-1.73249 -1.46678,-3.7626 -1.62621,-5.84585 -0.12224,-1.55712 0.63241,-3.61911 0.85562,-5.31441 0,0 0,-5.31441 0,-5.31441 0.0372,-6.94594 -1.28077,-5.44727 -2.9123,-11.16026 0,0 -1.85473,-9.56594 -1.85473,-9.56594 -0.65367,-2.3649 -1.42426,-2.52434 -2.04072,-4.34187 -0.58459,-1.72718 -1.61559,-9.81572 -1.47742,-11.60136 0.40921,-5.12309 1.31798,-4.60228 2.99202,-7.0469 1.42958,-2.08857 0.61116,-1.8441 3.23647,-4.6448 1.71655,-1.82816 5.25065,-4.75109 5.19218,-7.44018 -0.0638,-2.83789 -4.82016,-8.36488 -6.32946,-11.16026 0,0 -2.27457,-5.84585 -2.27457,-5.84585 -1.02036,-2.31177 -2.34365,-3.30556 -3.47031,-6.37729 -1.42957,-3.90077 -1.1107,-7.116 -1.1107,-11.16026 0,0 -1.59433,0 -1.59433,0 -0.005,-1.14791 0.11691,-3.0611 -0.54208,-4.02301 -1.775,-2.57748 -5.69173,-0.46766 -7.0841,1.39238 -1.7697,2.37022 -1.34986,3.96454 -1.96633,6.35071 -0.48893,1.90788 -1.20638,2.38617 -1.96102,6.3773 -0.28697,1.53055 -0.63242,4.92646 -2.00354,5.81397 -1.02567,0.6643 -7.89721,-0.48362 -9.82633,-0.49956 -1.12136,-2.17891 -2.0992,-2.37554 -2.81664,-3.83169 0,0 -1.65811,-5.20281 -1.65811,-5.20281 -1.48271,-3.94861 -3.28429,-7.39766 -3.49687,-11.6917 -5.26659,1.07351 -6.10625,4.30467 -9.20457,7.97161 0,0 -3.93797,3.8689 -3.93797,3.8689 0,0 -2.91761,4.08147 -2.91761,4.08147 0,0 -4.1346,3.78917 -4.1346,3.78917 -2.77414,2.62531 -4.85738,4.30998 -2.65721,7.92378 -1.20106,3.10362 -0.21258,2.94419 2.04072,4.67668 1.02569,0.78654 1.44021,1.32329 2.30114,2.24268 2.23738,2.38086 9.18331,8.68375 10.15053,11.14963 0.48892,1.25953 0.57395,3.42249 0.52613,4.78297 0,0 -0.33481,5.84585 -0.33481,5.84585 -0.38795,4.63417 -1.86536,7.84408 0,12.75459 1.34985,4.03364 4.00706,7.46675 6.11157,11.16026 0,0 3.89547,7.97161 3.89547,7.97161 1.32859,2.10452 5.84053,9.58188 5.98933,11.69171 0.17538,2.48183 -1.42426,2.84852 -1.98226,6.37729 0,0 1.59432,0 1.59432,0 0.69618,7.66869 6.94592,11.4685 7.5996,16.47467 0.48361,3.68821 -2.20548,6.5261 -0.69087,12.75458 0,0 -3.279,2.12046 -3.279,2.12046 0,0 -6.81838,0 -6.81838,0 0,0 -14.3489,0 -14.3489,0 0,0 -9.56594,-0.4783 -9.56594,-0.4783 0,0 -8.50306,0.63241 -8.50306,0.63241 0,0 -8.50305,1.1426 -8.50305,1.1426 0,0 -5.31441,-0.71745 -5.31441,-0.71745 0,0 -7.97162,0 -7.97162,0 0,0 -11.6917,-1.23293 -11.6917,-1.23293 0,0 -9.0345,1.19042 -9.0345,1.19042 0,0 -11.6917,0 -11.6917,0 -0.12756,-5.21875 -2.99202,-8.85913 2.17891,-13.70587 5.33566,-5.00086 11.83518,-1.59963 14.8272,-1.86536 3.05578,-0.26571 3.3587,-2.27988 5.3835,-3.33744 0,0 4.18244,-1.49866 4.18244,-1.49866 0,0 6.90873,-3.89546 6.90873,-3.89546 1.44552,-0.70682 4.54381,-1.38175 5.30377,-2.49778 0.79185,-1.16385 0.54208,-5.14967 0.54208,-6.68022 0.005,-1.82284 -0.23383,-4.08678 1.2914,-5.39943 1.2914,-1.11072 9.55531,-3.41717 10.07612,-5.80334 0.22321,-1.00443 -0.95128,-1.58902 -1.74843,-3.20459 -2.40213,-4.88395 -2.16829,-5.9043 -6.04781,-10.57036 0,0 -13.92375,-14.88035 -13.92375,-14.88035 -3.89547,-4.96365 -3.79449,-7.14256 -6.0106,-12.20188 -0.68555,-1.57307 -1.19043,-1.92914 -1.70592,-3.74135 0,0 -3.18865,0 -3.18865,0 -1.99822,-0.005 -3.36934,0.0638 -5.31441,-0.58459 -8.11511,-2.7316 -10.03892,-11.44191 -9.51812,-19.07873 0,0 0.85031,-6.90873 0.85031,-6.90873 0,0 0,-3.18865 0,-3.18865 0,0 1.11603,-5.84585 1.11603,-5.84585 0.59522,-2.80069 1.11071,-5.63859 1.17449,-8.50305 0,0 1.59432,0 1.59432,0 0.60584,-7.22229 3.85826,-8.56683 5.79271,-14.34891 0.87156,-2.61469 0.45172,-4.32061 0.6324,-6.90873 0,0 1.33393,-7.44018 1.33393,-7.44018 0.22852,-1.1054 0.37732,-1.99821 0.86625,-3.03984 0.63772,-1.36049 4.29935,-6.03186 -1.71655,-6.75992 -3.65632,-0.44642 -7.65808,2.1417 -10.62882,3.95391 0,0 -7.44018,-4.25153 -7.44018,-4.25153 0.72276,-1.69529 1.42957,-3.72008 2.80069,-4.99023 1.51461,-1.403 8.90695,-5.32504 10.92643,-9.35867 0.7759,-1.55712 0.62179,-3.60317 0.62179,-5.31441 2.27987,-1.27015 3.63505,-5.40476 3.0983,-7.97162 -0.27104,-1.28608 -1.87067,-4.1293 -2.59875,-5.31441 -3.58191,-5.79801 -8.68906,-11.70233 -11.09649,-18.06899 -1.13197,-3.00796 -1.15323,-5.89368 -1.66872,-9.0345 -0.5899,-3.59254 -1.36049,-6.49952 -0.48892,-10.09738 -0.73871,-0.41452 -1.05758,-0.41452 -1.58902,-1.217 -1.28609,-1.93976 -1.44552,-9.00261 -1.68998,-11.53758 -0.93534,-9.78914 0.37201,-28.29391 1.68467,-38.26375 0,0 1.59433,0 1.59433,0 0.0266,-3.05046 2.21078,-11.77141 3.68288,-14.3489 1.403,-2.44995 6.98312,-6.85028 7.14788,-13.28603 0.10097,-4.16649 -6.58456,-11.16557 -8.42865,-15.41179 -1.92382,-4.44816 -2.3968,-10.61288 -2.40211,-15.41179 0,0 -0.53144,-7.44017 -0.53144,-7.44017 -4.23559,2.23736 -5.41539,2.54029 -9.0345,5.84585 -1.41364,-2.79006 -3.88484,-10.20367 -2.11515,-13.11065 1.02037,-1.67404 3.66164,-2.33834 5.28253,-3.4331 2.21079,-1.49867 2.22142,-2.51372 3.54471,-3.98582 1.13197,-1.2542 2.31177,-1.69529 3.57128,-3.40653 2.33304,-3.15676 2.6891,-9.16205 4.43754,-10.82014 1.74312,-1.65278 4.87862,-0.17006 6.3082,-0.95128 1.06819,-0.58458 1.54118,-2.52434 1.93976,-3.61911 0,0 3.28431,-8.50307 3.28431,-8.50307 0.53144,-1.3658 1.23825,-2.77943 0.43578,-4.19307 -2.45526,-4.32061 -9.59783,-2.78474 -13.40294,-3.41716 -6.14878,-1.03099 -9.15673,-5.01148 -12.75458,-6.30289 -2.98139,-1.07352 -4.4216,0.41984 -9.03451,-1.49867 2.12045,-3.84762 4.0177,-3.98049 7.97163,-4.9796 1.2595,-0.31887 4.69793,-1.06288 5.36222,-2.16827 1.00443,-1.67936 -4.23026,-3.3162 -5.36222,-3.80513 -4.81487,-2.07262 -9.21519,-0.78122 -10.95832,-1.57306 -1.8441,-0.83968 -1.90257,-3.33214 -5.51636,-6.07437 0,0 -0.91408,-10.62882 -0.91408,-10.62882 0,0 4.63416,-9.03449 4.63416,-9.03449 4.55445,1.37642 5.14435,2.84321 6.5261,3.01858 1.15855,0.14881 3.99644,-0.97254 5.16562,-1.39769 3.73602,-1.3658 11.81393,-4.94772 12.9512,-9.055756 0.59522,-2.141703 -1.45614,-1.812213 -1.79094,-5.851161 9.16734,-3.507507 13.71117,-13.737744 19.66331,-17.006103 -3.01327,-4.506624 -1.3977,-7.062849 -3.9433,-10.028295 -4.2781,-4.99023 -8.62529,-1.700613 -8.81128,-7.509258 2.01947,0 5.60138,-0.191322 7.39234,0.462357 4.48536,1.63683 5.20281,4.102722 9.08233,6.329457 0,0 3.72009,2.226744 3.72009,2.226744 2.69971,1.503972 3.70945,1.466766 4.25153,4.798908 0,0 9.47558,2.593431 9.47558,2.593431 2.07794,0.143487 2.41274,-1.110708 4.34188,-1.525239 1.23294,-0.260406 2.55092,0.223209 4.25153,-0.457038 5.87773,-2.370222 7.28074,-11.463174 1.59432,-16.022943 z M 389.01313,345.63135 c -0.68556,0.12223 -1.20638,0.0797 -1.81754,0.54207 -1.01505,0.76528 -3.2471,5.11778 -3.05578,6.36666 0.18069,1.16387 1.79096,3.50752 1.92913,6.3773 0.23384,2.03542 -0.71744,4.36312 0,5.68641 0.75464,1.74313 3.43843,1.24359 2.88573,3.90079 -0.57396,2.76881 -4.72451,8.44991 -7.38171,9.57656 -1.27015,0.54207 -1.90257,0.36139 -3.18865,0.29229 -0.93534,-0.0478 -1.97165,-0.21789 -2.66252,0.60585 -0.7387,0.88219 -0.48894,3.70414 -0.54739,4.91582 -0.35075,4.75109 -1.9929,6.31884 0,11.16026 0,0 -3.16738,1.59433 -3.16738,1.59433 0,0 0.46235,3.18864 0.46235,3.18864 0.0744,1.76439 -0.61648,4.71389 1.27014,5.80865 1.87599,1.08946 3.43842,-1.90787 5.19749,-3.66162 3.24711,-3.24179 7.10538,-4.78296 11.13901,-6.79713 1.90788,-0.95659 4.60759,-1.95571 5.61733,-3.9061 0.81842,-1.589 1.27014,-6.05311 1.29141,-7.91847 0.0637,-6.66426 -1.77503,-13.10533 -2.65721,-19.66331 -2.25332,-1.41363 -2.23737,-3.40122 -2.85384,-5.84586 -1.33392,-5.26657 -1.73781,-6.73335 -2.46057,-12.22314 z"
     style="fill:#000000;fill-opacity:1;stroke:none" />
</svg>
